module avanpost

go 1.19

require (
	github.com/joho/godotenv v1.5.1
	github.com/rs/zerolog v1.31.0
	github.com/stretchr/testify v1.8.4
)

require (
	github.com/davecgh/go-spew v1.1.1 // indirect
	github.com/mattn/go-colorable v0.1.13 // indirect
	github.com/mattn/go-isatty v0.0.19 // indirect
	github.com/pmezard/go-difflib v1.0.0 // indirect
	golang.org/x/sys v0.12.0 // indirect
	gopkg.in/yaml.v3 v3.0.1 // indirect
)
